%YAML 1.1
%TAG !u! tag:unity3d.com,2011:
--- !u!114 &11400000
MonoBehaviour:
  m_ObjectHideFlags: 0
  m_PrefabParentObject: {fileID: 0}
  m_PrefabInternal: {fileID: 0}
  m_GameObject: {fileID: 0}
  m_Enabled: 1
  m_EditorHideFlags: 0
  m_Script: {fileID: 11500000, guid: 45d116abe1d8c42648cd2b727cbd7142, type: 3}
  m_Name: Old Tree
  m_EditorClassIdentifier: 
  interactionText: This tree sure looks like it's seen better days.
  mouseOverText: OLD TREE
  audio:
    soundClip: {fileID: 8300000, guid: 49c09bb6fb8c64871a48dd601b48306d, type: 3}
    volume: 0.785
